{
  "server": {
    "port": 5001,
    "host": "0.0.0.0"
  },
  "database": {
    "username": null,
    "password": null,
    "name": "perpustakaan-books",
    "host": "localhost",
    "port": 27017
  },
  "auth": {
    "url": "http://localhost:5000"
  }
}